<?xml version="1.0" encoding="UTF-8"?>
<svg width="204px" height="38px" viewBox="0 0 204 38" version="1.1" xmlns="http://www.w3.org/2000/svg" xmlns:xlink="http://www.w3.org/1999/xlink">
    <title>Hyperhaul name Blue</title>
    <g id="Hyperhaul-name-Blue" stroke="none" stroke-width="1" fill="none" fill-rule="evenodd">
        <g id="Group" fill="#1652F0">
            <polygon id="Fill-1" points="17.7141203 10.8888188 7.24475924 10.8888188 7.24475924 0 0 0 0 28 7.24475924 28 7.24475924 17.1031871 17.7141203 17.1031871 17.7141203 28 25 28 25 0 17.7141203 0"></polygon>
            <path d="M86.0285976,16.3263442 C86.1562195,15.4842745 86.5830488,14.8105343 87.0491463,14.3055456 C87.7756098,13.5896176 88.6681098,13.2947244 89.8188415,13.2947244 C90.5009146,13.2947244 91.737439,13.4208661 92.6303659,14.3055456 C93.1429878,14.8105343 93.5676829,15.6108381 93.7392683,16.3263442 L86.0285976,16.3263442 Z M89.6498171,9 C85.9009756,9 83.4304878,10.2213386 81.8529268,11.7371485 C80.1921341,13.3369123 79,15.8631215 79,19.020883 C79,22.6001013 80.575,24.915793 81.8115244,26.1367098 C84.1543902,28.4524015 87.1793293,29 89.6912195,29 C93.8225,29 96.0377439,27.7368954 97.4462805,26.3898369 C98.8492683,25.0423566 99.4455488,23.5687346 99.7447561,22.5157255 L93.2292073,22.5157255 C92.9295732,23.1055118 92.4613415,23.5261248 92.0340854,23.7788301 C91.1829878,24.2420529 89.9904268,24.2842407 89.8188415,24.2842407 C88.2856707,24.2842407 87.4345732,23.7788301 87.0073171,23.3577953 C86.197622,22.5579134 85.8151829,21.2104331 85.8151829,20.2000338 L100,20.2000338 L100,19.4841057 C100,17.3793533 99.6589634,14.0946063 96.975061,11.568819 C94.7179878,9.46322273 91.865061,9 89.6498171,9 L89.6498171,9 Z" id="Fill-2"></path>
            <path d="M112.236356,9.75354226 C111.241544,10.2554844 110.289894,11.0924741 109.626686,12.3479585 L109.626686,9.2931141 L103,9.2931141 L103,28 L109.626686,28 L109.626686,20.0070845 C109.626686,19.0023615 109.710106,17.0352682 111.117452,15.7378504 C112.069101,14.8593467 113.271841,14.7335467 114.139656,14.7335467 C115.757419,14.7335467 116.668396,15.2354889 117,15.4032222 L117,9.0838667 C116.12928,9.04193335 115.838348,9 115.673584,9 C114.431002,9 113.228678,9.20924741 112.236356,9.75354226" id="Fill-4"></path>
            <polygon id="Fill-6" points="137.71412 10.9561376 127.245179 10.9561376 127.245179 0 120 0 120 28 127.245179 28 127.245179 17.1709267 137.71412 17.1709267 137.71412 28 145 28 145 0 137.71412 0"></polygon>
            <path d="M162.234082,21.9976684 C161.392329,22.8366207 160.301962,23.2974773 159.211595,23.2974773 C158.0779,23.2974773 156.900034,22.7105888 156.187005,22.0400991 C155.347776,21.2431575 154.886305,20.0689604 154.886305,18.9787846 C154.886305,18.0146407 155.306972,16.7988531 156.230755,15.9183103 C157.195342,14.9957569 158.329037,14.7021026 159.168266,14.7021026 C160.594745,14.7021026 161.561857,15.3314218 162.190332,15.9183103 C163.242418,16.9244649 163.493977,18.098662 163.493977,18.9787846 C163.493977,20.4882265 162.821752,21.4107799 162.234082,21.9976684 L162.234082,21.9976684 Z M163.283223,11.4319953 C162.485219,10.5514525 160.679299,9 157.656813,9 C154.970859,9 152.492294,10.0481652 150.896707,11.6416283 C149.385254,13.1510702 148,15.624656 148,19.146407 C148,21.9560779 148.882558,24.0944189 150.688898,26.0227067 C152.954186,28.4131115 155.432751,29 157.44648,29 C159.294046,29 161.728862,28.454702 163.283223,26.316361 L163.283223,28.3706808 L170,28.3706808 L170,9.62889911 L163.283223,9.62889911 L163.283223,11.4319953 Z" id="Fill-8"></path>
            <path d="M186.333333,19.822616 C186.333333,20.6883906 186.208493,21.6842916 185.375942,22.5496324 C184.62481,23.2857143 183.832759,23.3724652 183.000209,23.3724652 C182.208158,23.3724652 181.33469,23.2423388 180.667481,22.6368171 C179.791507,21.8139843 179.666667,20.6016396 179.666667,19.822616 L179.666667,9 L173,9 L173,21.0779024 C173,22.939578 173.333605,24.6711271 174.749442,26.2296081 C176.957329,28.6968054 180.374794,29 183.16555,29 C185.709547,29 188.917831,28.7406146 191.210058,26.2729836 C192.875159,24.4976252 193,22.7231343 193,21.0779024 L193,9 L186.333333,9 L186.333333,19.822616 Z" id="Fill-10"></path>
            <polygon id="Fill-12" points="197 28 204 28 204 0 197 0"></polygon>
            <polygon id="Fill-14" points="40.1289606 19.6133277 35.0071995 10 27 10 36.2989615 26.204062 30.04114 38 37.7537573 38 53 10 45.1243489 10"></polygon>
            <path d="M67.812212,22.2245794 C67.0578854,23.0323955 66.0086436,23.499787 64.8331899,23.499787 C63.6989654,23.499787 62.6059702,23.0323955 61.8083109,22.2245794 C61.0947928,21.50155 60.507066,20.3111291 60.507066,19.2050687 C60.507066,18.1424668 60.9690016,16.9094395 61.8083109,16.0585911 C62.6059702,15.250775 63.6989654,14.7829575 64.8331899,14.7829575 C66.0086436,14.7829575 67.0578854,15.250775 67.812212,16.0585911 C68.6540455,16.9094395 69.1155604,18.1424668 69.1155604,19.2050687 C69.1155604,20.3533093 68.5278336,21.50155 67.812212,22.2245794 M66.4701585,9 C63.6989654,9 61.8928729,10.2330273 60.7174192,11.7212664 L60.7174192,9.63781679 L54,9.63781679 L54,38 L60.7174192,38 L60.7174192,26.8166899 C62.8163234,29.0283846 65.3359341,29.2831705 66.5521963,29.2831705 C68.4432716,29.2831705 70.8783202,28.7301403 72.9772245,26.6471167 C74.7837378,24.8606332 76,22.309366 76,19.1202821 C76,15.8459855 74.6991758,13.3373246 73.1467692,11.7638728 C71.6326468,10.2330273 69.3671428,9 66.4701585,9" id="Fill-15"></path>
        </g>
    </g>
</svg>